Introduction to crandep
…
The dependency network of all CRAN packages

Ultimately, we can use get_dep_df() to obtain all dependencies of all packages available on CRAN. This package provides an example dataset cran_dependencies that contains all such dependencies as of 2020-05-09.

data(cran_dependencies)
cran_dependencies
#> # A tibble: 211,381 x 4
#>    from  to             type     reverse
#>    <chr> <chr>          <chr>    <lgl>  
#>  1 A3    xtable         depends  FALSE  
#>  2 A3    pbapply        depends  FALSE  
#>  3 A3    randomForest   suggests FALSE  
#>  4 A3    e1071          suggests FALSE  
#>  5 aaSEA DT             imports  FALSE  
#>  6 aaSEA networkD3      imports  FALSE  
#>  7 aaSEA shiny          imports  FALSE  
#>  8 aaSEA shinydashboard imports  FALSE  
#>  9 aaSEA magrittr       imports  FALSE  
#> 10 aaSEA Bios2cor       imports  FALSE  
#> # … with 211,371 more rows
…
the column to lists those which are not on the page of available packages (anymore). These are either defunct or core packages.

Summary statistics

We can also obtain the degree for each package and each type:

df0.summary <- dplyr::count(cran_dependencies, from, type, reverse)
df0.summary
#> # A tibble: 34,861 x 4
#>    from        type       reverse     n
#>    <chr>       <chr>      <lgl>   <int>
#>  1 A3          depends    FALSE       2
#>  2 A3          suggests   FALSE       2
#>  3 ABACUS      imports    FALSE       2
#>  4 ABACUS      suggests   FALSE       2
#>  5 ABC.RAP     imports    FALSE       3
#>  6 ABC.RAP     suggests   FALSE       2
#>  7 ABCanalysis imports    FALSE       1
#>  8 ABCanalysis suggests   TRUE        4
#>  9 ABCoptim    imports    FALSE       4
#> 10 ABCoptim    linking_to FALSE       1
#> # … with 34,851 more rows
…
